Lab 5/console output.txt
===== CORDIC ALGORITHM TESTBENCH =====

--- Test 0: 0 degrees ---
                   0 | Angle: 0 | cos = 0.607 | sin = 0.000 | done = 0
                 250 | Angle: 0 | cos = 0.607 | sin = 0.607 | done = 0
                 350 | Angle: 0 | cos = 0.911 | sin = 0.304 | done = 0
                 450 | Angle: 0 | cos = 0.987 | sin = 0.076 | done = 0
                 550 | Angle: 0 | cos = 0.996 | sin = -0.047 | done = 0
                 650 | Angle: 0 | cos = 0.999 | sin = 0.015 | done = 0
                 750 | Angle: 0 | cos = 1.000 | sin = -0.016 | done = 0
                 850 | Angle: 0 | cos = 1.000 | sin = -0.001 | done = 0
                 950 | Angle: 0 | cos = 1.000 | sin = 0.007 | done = 0
                1050 | Angle: 0 | cos = 1.000 | sin = 0.003 | done = 0
                1150 | Angle: 0 | cos = 1.000 | sin = 0.001 | done = 0
                1250 | Angle: 0 | cos = 1.000 | sin = 0.000 | done = 0
                1350 | Angle: 0 | cos = 1.000 | sin = 0.000 | done = 0
                1450 | Angle: 0 | cos = 1.000 | sin = 0.000 | done = 0
                1550 | Angle: 0 | cos = 1.000 | sin = 0.000 | done = 0
                1750 | Angle: 0 | cos = 1.000 | sin = 0.000 | done = 1

--- Test 1: 30 degrees ---
                1900 | Angle: 30 | cos = 1.000 | sin = 0.000 | done = 1
                1950 | Angle: 30 | cos = 0.607 | sin = 0.000 | done = 0
                2050 | Angle: 30 | cos = 0.607 | sin = 0.607 | done = 0
                2150 | Angle: 30 | cos = 0.911 | sin = 0.304 | done = 0
                2250 | Angle: 30 | cos = 0.835 | sin = 0.531 | done = 0
                2350 | Angle: 30 | cos = 0.901 | sin = 0.427 | done = 0
                2450 | Angle: 30 | cos = 0.875 | sin = 0.483 | done = 0
                2550 | Angle: 30 | cos = 0.860 | sin = 0.511 | done = 0
                2650 | Angle: 30 | cos = 0.868 | sin = 0.497 | done = 0
                2750 | Angle: 30 | cos = 0.864 | sin = 0.504 | done = 0
                2850 | Angle: 30 | cos = 0.866 | sin = 0.501 | done = 0
                2950 | Angle: 30 | cos = 0.867 | sin = 0.499 | done = 0
                3050 | Angle: 30 | cos = 0.866 | sin = 0.500 | done = 0
                3150 | Angle: 30 | cos = 0.866 | sin = 0.500 | done = 0
                3250 | Angle: 30 | cos = 0.866 | sin = 0.500 | done = 0
                3350 | Angle: 30 | cos = 0.866 | sin = 0.500 | done = 0
                3550 | Angle: 30 | cos = 0.866 | sin = 0.500 | done = 1

--- Test 2: 45 degrees ---
                3750 | Angle: 45 | cos = 0.866 | sin = 0.500 | done = 1
                3850 | Angle: 45 | cos = 0.607 | sin = 0.000 | done = 0
                3950 | Angle: 45 | cos = 0.607 | sin = 0.607 | done = 0
                4050 | Angle: 45 | cos = 0.304 | sin = 0.911 | done = 0
                4150 | Angle: 45 | cos = 0.531 | sin = 0.835 | done = 0
                4250 | Angle: 45 | cos = 0.636 | sin = 0.769 | done = 0
                4350 | Angle: 45 | cos = 0.684 | sin = 0.729 | done = 0
                4450 | Angle: 45 | cos = 0.706 | sin = 0.708 | done = 0
                4550 | Angle: 45 | cos = 0.718 | sin = 0.697 | done = 0
                4650 | Angle: 45 | cos = 0.712 | sin = 0.702 | done = 0
                4750 | Angle: 45 | cos = 0.709 | sin = 0.705 | done = 0
                4850 | Angle: 45 | cos = 0.708 | sin = 0.706 | done = 0
                4950 | Angle: 45 | cos = 0.707 | sin = 0.707 | done = 0
                5050 | Angle: 45 | cos = 0.707 | sin = 0.707 | done = 0
                5150 | Angle: 45 | cos = 0.707 | sin = 0.707 | done = 0
                5250 | Angle: 45 | cos = 0.707 | sin = 0.707 | done = 0
                5450 | Angle: 45 | cos = 0.707 | sin = 0.707 | done = 1

--- Test 3: 60 degrees ---
                5600 | Angle: 60 | cos = 0.707 | sin = 0.707 | done = 1
                5650 | Angle: 60 | cos = 0.607 | sin = 0.000 | done = 0
                5750 | Angle: 60 | cos = 0.607 | sin = 0.607 | done = 0
                5850 | Angle: 60 | cos = 0.304 | sin = 0.911 | done = 0
                5950 | Angle: 60 | cos = 0.531 | sin = 0.835 | done = 0
                6050 | Angle: 60 | cos = 0.427 | sin = 0.901 | done = 0
                6150 | Angle: 60 | cos = 0.483 | sin = 0.875 | done = 0
                6250 | Angle: 60 | cos = 0.511 | sin = 0.860 | done = 0
                6350 | Angle: 60 | cos = 0.497 | sin = 0.868 | done = 0
                6450 | Angle: 60 | cos = 0.504 | sin = 0.864 | done = 0
                6550 | Angle: 60 | cos = 0.501 | sin = 0.866 | done = 0
                6650 | Angle: 60 | cos = 0.499 | sin = 0.867 | done = 0
                6750 | Angle: 60 | cos = 0.500 | sin = 0.866 | done = 0
                6850 | Angle: 60 | cos = 0.500 | sin = 0.866 | done = 0
                6950 | Angle: 60 | cos = 0.500 | sin = 0.866 | done = 0
                7050 | Angle: 60 | cos = 0.500 | sin = 0.866 | done = 0
                7250 | Angle: 60 | cos = 0.500 | sin = 0.866 | done = 1

===== TESTBENCH COMPLETED =====
$finish called at time : 7450 ns : File "D:/Vivado Proj/vlsi_lab5/vlsi_lab5.sim/cordic_tb.v" Line 35
INFO: [USF-XSim-96] XSim completed. Design snapshot 'cordic_tb_behav' loaded.
INFO: [USF-XSim-97] XSim simulation ran for 10000ns
launch_simulation: Time (s): cpu = 00:00:01 ; elapsed = 00:00:05 . Memory (MB): peak = 1437.102 ; gain = 0.457